%YAML 1.1
%TAG !u! tag:unity3d.com,2011:
--- !u!114 &11400000
MonoBehaviour:
  m_ObjectHideFlags: 0
  m_CorrespondingSourceObject: {fileID: 0}
  m_PrefabInstance: {fileID: 0}
  m_PrefabAsset: {fileID: 0}
  m_GameObject: {fileID: 0}
  m_Enabled: 1
  m_EditorHideFlags: 0
  m_Script: {fileID: 11500000, guid: fb298d0837d2745428e1a00cb6f09e29, type: 3}
  m_Name: Robin
  m_EditorClassIdentifier: 
  characterName: Robin
  characterDesc: 'Robin uses their sharp eye to take down enemies from afar. They
    also move quite fast. '
  unlockReq: Unlock them by reaching a highscore of 500 or more.
  characterHealth: 0
  characterMaxHealth: 1
  characterSpeed: 3
  characterRange: 10
  characterRequirement: 500
  dashMultiplier: 1
  isUnlocked: 0
