%YAML 1.1
%TAG !u! tag:unity3d.com,2011:
--- !u!1045 &1
EditorBuildSettings:
  m_ObjectHideFlags: 0
  serializedVersion: 2
  m_Scenes:
  - enabled: 1
    path: Assets/Scenes/Persistent.unity
    guid: ae56841bd8abf5948a4f9f54644609d4
  - enabled: 1
    path: Assets/Scenes/Menu.unity
    guid: 67e12d6afe6c6f543a11347c82700485
  - enabled: 1
    path: Assets/Scenes/Ingame.unity
    guid: 2cda990e2423bbf4892e6590ba056729
  m_configObjects: {}
